…
# Congress tweets after shooting

```
## # A tibble: 54,333 x 3
##    word1     word2           n
##    <chr>     <chr>       <int>
##  1 health    care          154
##  2 gun       violence      149
##  3 town      hall          148
##  4 law       enforcement   142
##  5 house     floor         129
##  6 op        ed             96
##  7 house     passed         88
##  8 president obama          82
##  9 navy      yard           79
## 10 happy     birthday       77
## # ... with 54,323 more rows
```

```
## # A tibble: 73,798 x 8
##    Date   Time  R_or_D Before_or_After screen_name  hashtags Nominate_dim1
##    <chr>  <tim> <chr>  <chr>           <chr>        <chr>            <dbl>
##  1 1/8/11 00:05 D      After           GabbyGiffor… <NA>            -0.11 
##  2 1/8/11 00:05 D      After           GabbyGiffor… <NA>            -0.11 
##  3 1/8/11 00:05 D      After           GabbyGiffor… <NA>            -0.11 
##  4 1/8/11 00:05 D      After           GabbyGiffor… <NA>            -0.11 
##  5 1/8/11 01:53 D      After           SilvestreRe… <NA>            -0.321
##  6 1/8/11 01:53 D      After           SilvestreRe… <NA>            -0.321
##  7 1/8/11 01:53 D      After           SilvestreRe… <NA>            -0.321
##  8 1/8/11 01:53 D      After           SilvestreRe… <NA>            -0.321
##  9 1/8/11 01:53 D      After           SilvestreRe… <NA>            -0.321
## 10 1/8/11 04:42 D      After           GabbyGiffor… <NA>            -0.11 
## # ... with 73,788 more rows, and 1 more variable: bigram <chr>
```
…
#Congress tweets before shootings


```
## # A tibble: 104,804 x 2
##    word          n
##    <fct>     <int>
##  1 of the      720
##  2 on the      555
##  3 in the      524
##  4 to the      494
##  5 the house   333
##  6 for the     327
##  7 at the      275
##  8 thank you   236
##  9 will be     216
## 10 proud to    207
## # ... with 104,794 more rows
```

```
## # A tibble: 38,511 x 3
##    word1     word2        n
##    <chr>     <chr>    <int>
##  1 health    care       111
##  2 house     floor      111
##  3 town      hall        78
##  4 watch     live        74
##  5 op        ed          72
##  6 middle    class       70
##  7 american  people      63
##  8 national  security    59
##  9 happy     birthday    56
## 10 president obama       47
## # ... with 38,501 more rows
```

```
## # A tibble: 49,635 x 8
##    Date   Time   R_or_D Before_or_After screen_name hashtags Nominate_dim1
##    <chr>  <time> <chr>  <chr>           <chr>       <chr>            <dbl>
##  1 1/10/… 00:02  D      Before          RepVisclos… <NA>            -0.402
##  2 1/10/… 00:02  D      Before          RepVisclos… <NA>            -0.402
##  3 1/10/… 00:02  D      Before          RepVisclos… <NA>            -0.402
##  4 1/10/… 00:02  D      Before          RepVisclos… <NA>            -0.402
##  5 1/10/… 00:59  R      Before          RepKayGran… <NA>             0.392
##  6 1/10/… 00:59  R      Before          RepKayGran… <NA>             0.392
##  7 1/10/… 00:59  R      Before          RepKayGran… <NA>             0.392
##  8 1/10/… 03:39  R      Before          DevinNunes  <NA>             0.448
##  9 1/10/… 03:39  R      Before          DevinNunes  <NA>             0.448
## 10 1/10/… 03:39  R      Before          DevinNunes  <NA>             0.448
## # ... with 49,625 more rows, and 1 more variable: bigram <chr>
```
…
#Joining before and after shooting dataframes


```
## # A tibble: 87,296 x 3
##    word1     word2           n
##    <chr>     <chr>       <int>
##  1 health    care          265
##  2 house     floor         240
##  3 town      hall          226
##  4 gun       violence      175
##  5 op        ed            168
##  6 law       enforcement   161
##  7 watch     live          144
##  8 happy     birthday      133
##  9 president obama         129
## 10 house     passed        126
## # ... with 87,286 more rows
```

```
## # A tibble: 123,408 x 8
##    Date   Time   R_or_D Before_or_After screen_name hashtags Nominate_dim1
##    <chr>  <time> <chr>  <chr>           <chr>       <chr>            <dbl>
##  1 1/10/… 00:02  D      Before          RepVisclos… <NA>            -0.402
##  2 1/10/… 00:02  D      Before          RepVisclos… <NA>            -0.402
##  3 1/10/… 00:02  D      Before          RepVisclos… <NA>            -0.402
##  4 1/10/… 00:02  D      Before          RepVisclos… <NA>            -0.402
##  5 1/10/… 00:59  R      Before          RepKayGran… <NA>             0.392
##  6 1/10/… 00:59  R      Before          RepKayGran… <NA>             0.392
##  7 1/10/… 00:59  R      Before          RepKayGran… <NA>             0.392
##  8 1/10/… 03:39  R      Before          DevinNunes  <NA>             0.448
##  9 1/10/… 03:39  R      Before          DevinNunes  <NA>             0.448
## 10 1/10/… 03:39  R      Before          DevinNunes  <NA>             0.448
## # ... with 123,398 more rows, and 1 more variable: bigram <chr>
```
#Words over time


```
## # A tibble: 910 x 6
##    time_floor          R_or_D bigram           count time_total word_total
##    <dttm>              <chr>  <chr>            <int>      <int>      <int>
##  1 2009-01-01 00:00:00 D      30 pm                1        596         43
##  2 2009-01-01 00:00:00 D      american people      1        596        120
##  3 2009-01-01 00:00:00 D      capitol hill         1        596         45
##  4 2009-01-01 00:00:00 D      committee heari…     1        596         36
##  5 2009-01-01 00:00:00 D      fort hood            1        596         63
##  6 2009-01-01 00:00:00 D      health care          7        596        265
##  7 2009-01-01 00:00:00 D      health insurance     2        596         41
##  8 2009-01-01 00:00:00 D      house floor          2        596        240
##  9 2009-01-01 00:00:00 D      listen live          4        596         72
## 10 2009-01-01 00:00:00 D      op ed                2        596        168
## # ... with 900 more rows
```

```
## # A tibble: 200 x 3
##    R_or_D bigram            data            
##    <chr>  <chr>             <list>          
##  1 D      30 pm             <tibble [6 × 4]>
##  2 D      american people   <tibble [6 × 4]>
##  3 D      capitol hill      <tibble [5 × 4]>
##  4 D      committee hearing <tibble [7 × 4]>
##  5 D      fort hood         <tibble [2 × 4]>
##  6 D      health care       <tibble [7 × 4]>
##  7 D      health insurance  <tibble [7 × 4]>
##  8 D      house floor       <tibble [7 × 4]>
##  9 D      listen live       <tibble [5 × 4]>
## 10 D      op ed             <tibble [7 × 4]>
## # ... with 190 more rows
```

```
## # A tibble: 200 x 4
##    R_or_D bigram            data             models   
##    <chr>  <chr>             <list>           <list>   
##  1 D      30 pm             <tibble [6 × 4]> <S3: glm>
##  2 D      american people   <tibble [6 × 4]> <S3: glm>
##  3 D      capitol hill      <tibble [5 × 4]> <S3: glm>
##  4 D      committee hearing <tibble [7 × 4]> <S3: glm>
##  5 D      fort hood         <tibble [2 × 4]> <S3: glm>
##  6 D      health care       <tibble [7 × 4]> <S3: glm>
##  7 D      health insurance  <tibble [7 × 4]> <S3: glm>
##  8 D      house floor       <tibble [7 × 4]> <S3: glm>
##  9 D      listen live       <tibble [5 × 4]> <S3: glm>
## 10 D      op ed             <tibble [7 × 4]> <S3: glm>
## # ... with 190 more rows
```

```
## # A tibble: 24 x 8
##    R_or_D bigram         term      estimate   std.error statistic  p.value
##    <chr>  <chr>          <chr>        <dbl>       <dbl>     <dbl>    <dbl>
##  1 D      health care    time_flo… -7.07e-9     1.75e-9     -4.05 5.22e- 5
##  2 D      listen live    time_flo… -2.20e-8     5.11e-9     -4.31 1.66e- 5
##  3 D      police office… time_flo…  2.07e-8     4.87e-9      4.25 2.10e- 5
##  4 R      30 pm          time_flo… -1.44e-8     2.58e-9     -5.57 2.57e- 8
##  5 R      fort hood      time_flo… -1.14e-8     1.81e-9     -6.27 3.62e-10
##  6 R      health care    time_flo… -1.31e-8     1.20e-9    -11.0  4.24e-28
##  7 R      house gop      time_flo… -1.72e-8     2.85e-9     -6.06 1.36e- 9
##  8 R      press confere… time_flo… -1.12e-8     2.65e-9     -4.22 2.46e- 5
##  9 R      town hall      time_flo… -6.14e-9     1.51e-9     -4.06 4.96e- 5
## 10 R      create jobs    time_flo… -1.53e-8     2.69e-9     -5.70 1.22e- 8
## # ... with 14 more rows, and 1 more variable: adjusted.p.value <dbl>
```
…
#Logistic Regression

```
## # A tibble: 475 x 12
##    Date   Time  R_or_D Before_or_After screen_name text         hashtags  
##    <chr>  <tim> <chr>  <chr>           <chr>       <chr>        <chr>     
##  1 12/3/… 18:21 D      After           RepDeSauln… Over the la… Terrorist…
##  2 6/13/… 18:39 D      After           LorettaSan… Let's stand… PrayForOr…
##  3 12/3/… 01:56 D      After           AGBecerra   It’s time t… gunviolen…
##  4 6/13/… 14:19 D      After           BradSherman My deepest … OrlandoUn…
##  5 11/27… 15:37 D      After           BradSherman Will be on … terrorism…
##  6 6/13/… 17:59 D      After           RepAdamSch… Donald Trum… <NA>      
##  7 6/13/… 17:58 D      After           RepAdamSch… Donald Trum… <NA>      
##  8 6/13/… 13:40 D      After           RepAdamSch… The mass sh… Orlando   
##  9 6/12/… 16:38 D      After           RepAdamSch… This mornin… Orlando   
## 10 12/3/… 17:26 D      After           RepAdamSch… FBI is cond… <NA>      
## # ... with 465 more rows, and 5 more variables: Nominate_dim1 <dbl>,
## #   case <chr>, total_victims <int>, mental_health_issues <chr>,
## #   race <chr>
```
…
```
## # A tibble: 708 x 3
##    R_or_D Nominate_dim1  pred
##    <fct>          <dbl> <dbl>
##  1 D             -0.767 -5.38
##  2 D             -0.687 -5.33
##  3 D             -0.666 -5.32
##  4 D             -0.658 -5.31
##  5 D             -0.656 -5.31
##  6 D             -0.599 -5.27
##  7 D             -0.589 -5.26
##  8 D             -0.585 -5.26
##  9 D             -0.582 -5.26
## 10 D             -0.580 -5.26
## # ... with 698 more rows
```
…
```
## [1] 0.1399738
```

```
## # A tibble: 1,136 x 4
##    R_or_D Nominate_dim1 race        pred
##    <fct>          <dbl> <fct>      <dbl>
##  1 D             -0.666 Latino   2.52e16
##  2 D             -0.666 Other    3.70e15
##  3 D             -0.666 White   -6.45e15
##  4 D             -0.666 <NA>    NA      
##  5 D             -0.564 Latino   2.52e16
##  6 D             -0.564 Other    3.64e15
##  7 D             -0.564 White   -3.84e15
##  8 D             -0.564 <NA>    NA      
##  9 D             -0.552 Latino   2.52e16
## 10 D             -0.552 Other    3.63e15
## # ... with 1,126 more rows
```
…
