…
# Congress tweets after shooting

```
## # A tibble: 54,333 x 3
##    word1     word2           n
##    <chr>     <chr>       <int>
##  1 health    care          154
##  2 gun       violence      149
##  3 town      hall          148
##  4 law       enforcement   142
##  5 house     floor         129
##  6 op        ed             96
##  7 house     passed         88
##  8 president obama          82
##  9 navy      yard           79
## 10 happy     birthday       77
## # ... with 54,323 more rows
```

```
## # A tibble: 73,798 x 8
##    Date  Time  R_or_D Before_or_After screen_name hashtags Nominate_dim1
##    <chr> <tim> <chr>  <chr>           <chr>       <chr>            <dbl>
##  1 1/8/… 00:05 D      After           GabbyGiffo… <NA>            -0.11 
##  2 1/8/… 00:05 D      After           GabbyGiffo… <NA>            -0.11 
##  3 1/8/… 00:05 D      After           GabbyGiffo… <NA>            -0.11 
##  4 1/8/… 00:05 D      After           GabbyGiffo… <NA>            -0.11 
##  5 1/8/… 01:53 D      After           SilvestreR… <NA>            -0.321
##  6 1/8/… 01:53 D      After           SilvestreR… <NA>            -0.321
##  7 1/8/… 01:53 D      After           SilvestreR… <NA>            -0.321
##  8 1/8/… 01:53 D      After           SilvestreR… <NA>            -0.321
##  9 1/8/… 01:53 D      After           SilvestreR… <NA>            -0.321
## 10 1/8/… 04:42 D      After           GabbyGiffo… <NA>            -0.11 
## # ... with 73,788 more rows, and 1 more variable: bigram <chr>
```
…
#Logs Ratio for after shootings

```
## # A tibble: 54,333 x 4
##    bigram                    D         R logratio
##    <chr>                 <dbl>     <dbl>    <dbl>
##  1 families affected 0.000214  0.000213  -0.00276
##  2 protect americans 0.0000714 0.0000712 -0.00276
##  3 sandy hook        0.0000714 0.0000712 -0.00276
##  4 2 2               0.000202  0.000203   0.00561
##  5 bipartisan bill   0.000202  0.000203   0.00561
##  6 middle school     0.000155  0.000152  -0.0138 
##  7 1 2               0.000250  0.000254   0.0174 
##  8 care reform       0.0000832 0.0000813 -0.0234 
##  9 committee hearing 0.000166  0.000163  -0.0234 
## 10 families friends  0.0000832 0.0000813 -0.0234 
## # ... with 54,323 more rows
```
…
#Comparing words frequency by plotting(after shooting)


```
## # A tibble: 56,844 x 5
## # Groups:   R_or_D [2]
##    R_or_D bigram              n total    freq
##    <chr>  <chr>           <int> <int>   <dbl>
##  1 D      gun violence      149 29756 0.00501
##  2 R      law enforcement   103 44042 0.00234
##  3 R      health care        96 44042 0.00218
##  4 R      house passed       77 44042 0.00175
##  5 R      house floor        76 44042 0.00173
##  6 D      town hall          75 29756 0.00252
##  7 R      town hall          73 44042 0.00166
##  8 R      op ed              68 44042 0.00154
##  9 R      president obama    62 44042 0.00141
## 10 R      watch live         60 44042 0.00136
## # ... with 56,834 more rows
```

```
## # A tibble: 54,333 x 3
##    bigram              D         R
##    <chr>           <dbl>     <dbl>
##  1 1 15        0.0000336 0.0000227
##  2 1 15pm      0.0000336 0.0000227
##  3 1 40        0.0000336 0.0000227
##  4 1 45        0.0000336 0.0000227
##  5 1.3 billion 0.0000336 0.0000227
##  6 1.9 million 0.0000336 0.0000227
##  7 10 10       0.0000336 0.0000227
##  8 100 million 0.0000336 0.0000227
##  9 100 people  0.0000336 0.0000227
## 10 100 rating  0.0000336 0.0000227
## # ... with 54,323 more rows
```
…
#Congress tweets before shootings


```
## # A tibble: 104,804 x 2
##    word          n
##    <fct>     <int>
##  1 of the      720
##  2 on the      555
##  3 in the      524
##  4 to the      494
##  5 the house   333
##  6 for the     327
##  7 at the      275
##  8 thank you   236
##  9 will be     216
## 10 proud to    207
## # ... with 104,794 more rows
```

```
## # A tibble: 38,511 x 3
##    word1     word2        n
##    <chr>     <chr>    <int>
##  1 health    care       111
##  2 house     floor      111
##  3 town      hall        78
##  4 watch     live        74
##  5 op        ed          72
##  6 middle    class       70
##  7 american  people      63
##  8 national  security    59
##  9 happy     birthday    56
## 10 president obama       47
## # ... with 38,501 more rows
```

```
## # A tibble: 49,635 x 8
##    Date  Time  R_or_D Before_or_After screen_name hashtags Nominate_dim1
##    <chr> <tim> <chr>  <chr>           <chr>       <chr>            <dbl>
##  1 1/10… 00:02 D      Before          RepVisclos… <NA>            -0.402
##  2 1/10… 00:02 D      Before          RepVisclos… <NA>            -0.402
##  3 1/10… 00:02 D      Before          RepVisclos… <NA>            -0.402
##  4 1/10… 00:02 D      Before          RepVisclos… <NA>            -0.402
##  5 1/10… 00:59 R      Before          RepKayGran… <NA>             0.392
##  6 1/10… 00:59 R      Before          RepKayGran… <NA>             0.392
##  7 1/10… 00:59 R      Before          RepKayGran… <NA>             0.392
##  8 1/10… 03:39 R      Before          DevinNunes  <NA>             0.448
##  9 1/10… 03:39 R      Before          DevinNunes  <NA>             0.448
## 10 1/10… 03:39 R      Before          DevinNunes  <NA>             0.448
## # ... with 49,625 more rows, and 1 more variable: bigram <chr>
```
…
```
## # A tibble: 38,511 x 4
##    bigram                     D         R logratio
##    <chr>                  <dbl>     <dbl>    <dbl>
##  1 1 million          0.0000871 0.0000866 -0.00536
##  2 7 30               0.0000871 0.0000866 -0.00536
##  3 save lives         0.0000871 0.0000866 -0.00536
##  4 step forward       0.0000871 0.0000866 -0.00536
##  5 30 pm              0.000105  0.000101  -0.0335 
##  6 american flag      0.000105  0.000101  -0.0335 
##  7 gabrielle giffords 0.000105  0.000101  -0.0335 
##  8 6 30               0.0000697 0.0000722  0.0355 
##  9 appropriations act 0.0000697 0.0000722  0.0355 
## 10 beautiful day      0.0000697 0.0000722  0.0355 
## # ... with 38,501 more rows
```
…
#Joining before and after shooting dataframes


```
## # A tibble: 87,296 x 3
##    word1     word2           n
##    <chr>     <chr>       <int>
##  1 health    care          265
##  2 house     floor         240
##  3 town      hall          226
##  4 gun       violence      175
##  5 op        ed            168
##  6 law       enforcement   161
##  7 watch     live          144
##  8 happy     birthday      133
##  9 president obama         129
## 10 house     passed        126
## # ... with 87,286 more rows
```

```
## # A tibble: 123,408 x 8
##    Date  Time  R_or_D Before_or_After screen_name hashtags Nominate_dim1
##    <chr> <tim> <chr>  <chr>           <chr>       <chr>            <dbl>
##  1 1/10… 00:02 D      Before          RepVisclos… <NA>            -0.402
##  2 1/10… 00:02 D      Before          RepVisclos… <NA>            -0.402
##  3 1/10… 00:02 D      Before          RepVisclos… <NA>            -0.402
##  4 1/10… 00:02 D      Before          RepVisclos… <NA>            -0.402
##  5 1/10… 00:59 R      Before          RepKayGran… <NA>             0.392
##  6 1/10… 00:59 R      Before          RepKayGran… <NA>             0.392
##  7 1/10… 00:59 R      Before          RepKayGran… <NA>             0.392
##  8 1/10… 03:39 R      Before          DevinNunes  <NA>             0.448
##  9 1/10… 03:39 R      Before          DevinNunes  <NA>             0.448
## 10 1/10… 03:39 R      Before          DevinNunes  <NA>             0.448
## # ... with 123,398 more rows, and 1 more variable: bigram <chr>
```
#Words over time


```
## # A tibble: 910 x 6
##    time_floor          R_or_D bigram            count time_total word_total
##    <dttm>              <chr>  <chr>             <int>      <int>      <int>
##  1 2009-01-01 00:00:00 D      30 pm                 1        596         43
##  2 2009-01-01 00:00:00 D      american people       1        596        120
##  3 2009-01-01 00:00:00 D      capitol hill          1        596         45
##  4 2009-01-01 00:00:00 D      committee hearing     1        596         36
##  5 2009-01-01 00:00:00 D      fort hood             1        596         63
##  6 2009-01-01 00:00:00 D      health care           7        596        265
##  7 2009-01-01 00:00:00 D      health insurance      2        596         41
##  8 2009-01-01 00:00:00 D      house floor           2        596        240
##  9 2009-01-01 00:00:00 D      listen live           4        596         72
## 10 2009-01-01 00:00:00 D      op ed                 2        596        168
## # ... with 900 more rows
```

```
## # A tibble: 200 x 3
##    R_or_D bigram            data            
##    <chr>  <chr>             <list>          
##  1 D      30 pm             <tibble [6 × 4]>
##  2 D      american people   <tibble [6 × 4]>
##  3 D      capitol hill      <tibble [5 × 4]>
##  4 D      committee hearing <tibble [7 × 4]>
##  5 D      fort hood         <tibble [2 × 4]>
##  6 D      health care       <tibble [7 × 4]>
##  7 D      health insurance  <tibble [7 × 4]>
##  8 D      house floor       <tibble [7 × 4]>
##  9 D      listen live       <tibble [5 × 4]>
## 10 D      op ed             <tibble [7 × 4]>
## # ... with 190 more rows
```

```
## # A tibble: 200 x 4
##    R_or_D bigram            data             models   
##    <chr>  <chr>             <list>           <list>   
##  1 D      30 pm             <tibble [6 × 4]> <S3: glm>
##  2 D      american people   <tibble [6 × 4]> <S3: glm>
##  3 D      capitol hill      <tibble [5 × 4]> <S3: glm>
##  4 D      committee hearing <tibble [7 × 4]> <S3: glm>
##  5 D      fort hood         <tibble [2 × 4]> <S3: glm>
##  6 D      health care       <tibble [7 × 4]> <S3: glm>
##  7 D      health insurance  <tibble [7 × 4]> <S3: glm>
##  8 D      house floor       <tibble [7 × 4]> <S3: glm>
##  9 D      listen live       <tibble [5 × 4]> <S3: glm>
## 10 D      op ed             <tibble [7 × 4]> <S3: glm>
## # ... with 190 more rows
```

```
## # A tibble: 24 x 8
##    R_or_D bigram term  estimate std.error statistic  p.value
##    <chr>  <chr>  <chr>    <dbl>     <dbl>     <dbl>    <dbl>
##  1 D      healt… time… -7.07e-9   1.75e-9     -4.05 5.22e- 5
##  2 D      liste… time… -2.20e-8   5.11e-9     -4.31 1.66e- 5
##  3 D      polic… time…  2.07e-8   4.87e-9      4.25 2.10e- 5
##  4 R      30 pm  time… -1.44e-8   2.58e-9     -5.57 2.57e- 8
##  5 R      fort … time… -1.14e-8   1.81e-9     -6.27 3.62e-10
##  6 R      healt… time… -1.31e-8   1.20e-9    -11.0  4.24e-28
##  7 R      house… time… -1.72e-8   2.85e-9     -6.06 1.36e- 9
##  8 R      press… time… -1.12e-8   2.65e-9     -4.22 2.46e- 5
##  9 R      town … time… -6.14e-9   1.51e-9     -4.06 4.96e- 5
## 10 R      creat… time… -1.53e-8   2.69e-9     -5.70 1.22e- 8
## # ... with 14 more rows, and 1 more variable: adjusted.p.value <dbl>
```
…
#Logistic Regression

```
## # A tibble: 475 x 12
##    Date  Time  R_or_D Before_or_After screen_name text  hashtags
##    <chr> <tim> <chr>  <chr>           <chr>       <chr> <chr>   
##  1 12/3… 18:21 D      After           RepDeSauln… Over… Terrori…
##  2 6/13… 18:39 D      After           LorettaSan… Let'… PrayFor…
##  3 12/3… 01:56 D      After           AGBecerra   It’s… gunviol…
##  4 6/13… 14:19 D      After           BradSherman My d… Orlando…
##  5 11/2… 15:37 D      After           BradSherman Will… terrori…
##  6 6/13… 17:59 D      After           RepAdamSch… Dona… <NA>    
##  7 6/13… 17:58 D      After           RepAdamSch… Dona… <NA>    
##  8 6/13… 13:40 D      After           RepAdamSch… The … Orlando 
##  9 6/12… 16:38 D      After           RepAdamSch… This… Orlando 
## 10 12/3… 17:26 D      After           RepAdamSch… FBI … <NA>    
## # ... with 465 more rows, and 5 more variables: Nominate_dim1 <dbl>,
## #   case <chr>, total_victims <int>, mental_health_issues <chr>,
## #   race <chr>
```
…
```
##             (Intercept)               raceOther           Nominate_dim1 
##              0.32571035              0.03297773              0.79023925 
## raceOther:Nominate_dim1 
##              0.33047904
```

```
## [1] 2.605704e-37
```

```
## # A tibble: 516 x 3
##    Nominate_dim1 race             pred
##            <dbl> <chr>           <dbl>
##  1        -0.687 Middle Eastern 0.163 
##  2        -0.687 Other          0.0106
##  3        -0.666 Middle Eastern 0.166 
##  4        -0.666 Other          0.0108
##  5        -0.658 Middle Eastern 0.168 
##  6        -0.658 Other          0.0108
##  7        -0.656 Middle Eastern 0.168 
##  8        -0.656 Other          0.0108
##  9        -0.589 Middle Eastern 0.181 
## 10        -0.589 Other          0.0113
## # ... with 506 more rows
```
…
